\relax 
\select@language{english}
\@writefile{toc}{\select@language{english}}
\@writefile{lof}{\select@language{english}}
\@writefile{lot}{\select@language{english}}
\citation{Roy07asurvey}
\citation{DiPentaJournal}
\citation{DiPentaJournal,Aversano,Barbour11-LP,BarbourKZ13}
\@writefile{toc}{\contentsline {section}{\numberline {1}Introduction}{2}}
\newlabel{intro}{{1}{2}}
\citation{Kim}
\citation{rahman2012clones}
\citation{fowler2009refactoring}
\citation{juergens2009code}
\citation{KrinkeConsistentInconsistentChanges}
\citation{NilsCloneStability}
\citation{svajlenko2014evaluating}
\citation{svajlenko2014evaluating}
\@writefile{toc}{\contentsline {section}{\numberline {2}Related Work}{4}}
\newlabel{relatedWork}{{2}{4}}
\@writefile{toc}{\contentsline {subsection}{\numberline {2.1}Clone Genealogies}{4}}
\@writefile{toc}{\contentsline {subsection}{\numberline {2.2}Bug-proneness of code Clone}{4}}
\@writefile{toc}{\contentsline {subsection}{\numberline {2.3}Analysis of Clone Genealogies}{4}}
\citation{NilsFrequencyAndRisks}
\citation{Goede:2011:ICSE}
\citation{Goede:2011:IWSC}
\citation{DiPentaJournal}
\citation{Barbour11-LP,BarbourKZ13}
\citation{Mondal2016}
\citation{Xie:2013:ESF}
\citation{Xie:2014}
\citation{Khoshgoftaar-96-DSM}
\citation{Bernstein07-DefectPrediction}
\citation{Graves00-FaultIncidence}
\citation{Nagappan05-Codechurn}
\citation{Hassan09-ComplexityofCodeChanges}
\citation{Emam01-PFC}
\citation{chi94}
\citation{Briand99-UFC}
\citation{Nagappan06-MMP}
\citation{Zimmermann07-PredEclipse}
\citation{Arisholm06-Faultprediction}
\citation{Moser08-ChangevsStatic}
\@writefile{toc}{\contentsline {subsection}{\numberline {2.4}Statistical Explanatory Models}{6}}
\citation{kononenko2015investigating}
\citation{mcintosh2015emse}
\@writefile{lof}{\contentsline {figure}{\numberline {1}{\ignorespaces Clone Pair States and Changes\relax }}{7}}
\providecommand*\caption@xref[2]{\@setref\relax\@undefined{#1}}
\newlabel{fig:classification}{{1}{7}}
\@writefile{toc}{\contentsline {section}{\numberline {3}Clone Evolutionary Patterns}{7}}
\newlabel{classification}{{3}{7}}
\@writefile{toc}{\contentsline {subsection}{\numberline {3.1}States and Transitions of Clone Pairs}{7}}
\@writefile{toc}{\contentsline {subsection}{\numberline {3.2}Six Clone Evolutionary Patterns}{8}}
\citation{CloningConsideredHarmful}
\@writefile{lof}{\contentsline {figure}{\numberline {2}{\ignorespaces An Example of an Inconsistent Genealogy from ArgoUML using NiCad\relax }}{9}}
\newlabel{Example2}{{2}{9}}
\citation{DiPentaJournal}
\citation{DiPentaJournal}
\citation{DiPentaJournal}
\@writefile{toc}{\contentsline {section}{\numberline {4}Study Design}{10}}
\newlabel{design}{{4}{10}}
\@writefile{toc}{\contentsline {subsection}{\numberline {4.1}Subject Systems}{10}}
\citation{sloccount}
\@writefile{lof}{\contentsline {figure}{\numberline {3}{\ignorespaces Overview of the Analysis Process.\relax }}{11}}
\newlabel{fig:process}{{3}{11}}
\@writefile{lot}{\contentsline {table}{\numberline {1}{\ignorespaces Characteristics of the Systems\relax }}{11}}
\newlabel{tab:datadescription}{{1}{11}}
\@writefile{toc}{\contentsline {subsection}{\numberline {4.2}Data Preprocessing}{11}}
\citation{sliwerski2005changes}
\citation{fischer2003populating}
\@writefile{lot}{\contentsline {table}{\numberline {2}{\ignorespaces Number of faulty and clean clone changes in each system.\relax }}{12}}
\newlabel{tab:buggy_cnt}{{2}{12}}
\@writefile{lof}{\contentsline {figure}{\numberline {4}{\ignorespaces Percentage of the frequency of the number of changes in a studied clone genealogiy detected by NiCad\relax }}{12}}
\newlabel{fig:nicad_dist}{{4}{12}}
\@writefile{lof}{\contentsline {subfigure}{\numberline{(a)}{\ignorespaces {ArgoUML}}}{12}}
\@writefile{lof}{\contentsline {subfigure}{\numberline{(b)}{\ignorespaces {Ant}}}{12}}
\@writefile{lof}{\contentsline {subfigure}{\numberline{(c)}{\ignorespaces {JEdit}}}{12}}
\@writefile{lof}{\contentsline {subfigure}{\numberline{(d)}{\ignorespaces {Maven}}}{12}}
\@writefile{toc}{\contentsline {subsection}{\numberline {4.3}Detecting Faulty Changes}{12}}
\newlabel{szz}{{4.3}{12}}
\@writefile{lof}{\contentsline {figure}{\numberline {5}{\ignorespaces Percentage of the frequency of the number of changes in a studied clone genealogy detected by iClones\relax }}{13}}
\newlabel{fig:iclones_dist}{{5}{13}}
\@writefile{lof}{\contentsline {subfigure}{\numberline{(a)}{\ignorespaces {ArgoUML}}}{13}}
\@writefile{lof}{\contentsline {subfigure}{\numberline{(b)}{\ignorespaces {Ant}}}{13}}
\@writefile{lof}{\contentsline {subfigure}{\numberline{(c)}{\ignorespaces {JEdit}}}{13}}
\@writefile{lof}{\contentsline {subfigure}{\numberline{(d)}{\ignorespaces {Maven}}}{13}}
\newlabel{fig:start_cnt_nicad}{{6(a)}{13}}
\newlabel{sub@fig:start_cnt_nicad}{{(a)}{13}}
\newlabel{fig:start_cnt_iclones}{{6(b)}{13}}
\newlabel{sub@fig:start_cnt_iclones}{{(b)}{13}}
\@writefile{lof}{\contentsline {figure}{\numberline {6}{\ignorespaces Number of clone genealogies starting from a specific commit\relax }}{13}}
\newlabel{fig:starting_cnt}{{6}{13}}
\@writefile{lof}{\contentsline {subfigure}{\numberline{(a)}{\ignorespaces {NiCad}}}{13}}
\@writefile{lof}{\contentsline {subfigure}{\numberline{(b)}{\ignorespaces {iClones}}}{13}}
\citation{Roy08-NiCad}
\citation{gode2009incremental}
\citation{svajlenko2014evaluating}
\citation{svajlenko2014evaluating}
\citation{svajlenko2014evaluating}
\citation{Lakhotia03}
\@writefile{toc}{\contentsline {subsection}{\numberline {4.4}Extracting Clone Genealogies}{14}}
\citation{whachthepatch}
\citation{CCFinder}
\citation{Roy07asurvey}
\citation{sheskin}
\citation{dmitrienko2005analysis}
\@writefile{toc}{\contentsline {section}{\numberline {5}Study Results}{16}}
\newlabel{results}{{5}{16}}
\@writefile{toc}{\contentsline {subsection}{\numberline {5.1}RQ1: Which clone evolutionary patterns and clone changes are most at risk of faults?}{16}}
\@writefile{toc}{\contentsline {paragraph}{\textbf  {Motivation}}{16}}
\@writefile{toc}{\contentsline {paragraph}{\textbf  {Approach}}{16}}
\@writefile{lot}{\contentsline {table}{\numberline {3}{\ignorespaces Contingency Tables for Clone Evolutionary Patterns\relax }}{18}}
\newlabel{tab:contingency_gen}{{3}{18}}
\@writefile{lot}{\contentsline {table}{\numberline {4}{\ignorespaces Statistical Analyses for Clone Evolutionary Patterns\relax }}{18}}
\newlabel{tab:stat_gen}{{4}{18}}
\@writefile{toc}{\contentsline {paragraph}{\textbf  {Results}}{18}}
\@writefile{lot}{\contentsline {table}{\numberline {5}{\ignorespaces Contingency Tables for Clone Pair Changes\relax }}{19}}
\newlabel{tab:contingency_change}{{5}{19}}
\@writefile{lot}{\contentsline {table}{\numberline {6}{\ignorespaces Statistical Analyses for Clone Pair Changes\relax }}{19}}
\newlabel{tab:stat_change}{{6}{19}}
\@writefile{lot}{\contentsline {table}{\numberline {7}{\ignorespaces Contingency Tables for Evolutionary Patterns and Changes\relax }}{19}}
\newlabel{tab:cont_pattern_change}{{7}{19}}
\@writefile{lot}{\contentsline {table}{\numberline {8}{\ignorespaces Statistical Analyses for Evolutionary Patterns and Changes\relax }}{20}}
\newlabel{tab:stat_pattern_change}{{8}{20}}
\@writefile{toc}{\contentsline {subsection}{\numberline {5.2} RQ2: Does the size of a clone or the time interval between changes affect the fault-proneness of a clone pair?}{22}}
\@writefile{toc}{\contentsline {paragraph}{\textbf  {Motivation}}{22}}
\@writefile{toc}{\contentsline {paragraph}{\textbf  {Approach}}{22}}
\@writefile{lot}{\contentsline {table}{\numberline {9}{\ignorespaces Contingency Tables for Evolutionary Patterns Considering the Time Interval between Changes\relax }}{23}}
\newlabel{tab:cont_time}{{9}{23}}
\@writefile{lot}{\contentsline {table}{\numberline {10}{\ignorespaces Statistical Analyses for Evolutionary Patterns Considering the Time Interval between Changes\relax }}{23}}
\newlabel{tab:stat_time}{{10}{23}}
\@writefile{toc}{\contentsline {paragraph}{\textbf  {Results}}{23}}
\@writefile{lot}{\contentsline {table}{\numberline {11}{\ignorespaces Contingency Tables for Evolutionary Patterns Considering the Cloned Code Size\relax }}{24}}
\newlabel{tab:cont_size}{{11}{24}}
\@writefile{lot}{\contentsline {table}{\numberline {12}{\ignorespaces Statistical Analyses for Evolutionary Patterns Considering the Cloned Code Size\relax }}{24}}
\newlabel{tab:stat_size}{{12}{24}}
\@writefile{lof}{\contentsline {figure}{\numberline {7}{\ignorespaces Estimated bug-proneness probability for various time intervals (in days) based on NiCad's detection\relax }}{25}}
\newlabel{fig:trend_time_nicad}{{7}{25}}
\@writefile{lof}{\contentsline {subfigure}{\numberline{(a)}{\ignorespaces {ArgoUML}}}{25}}
\@writefile{lof}{\contentsline {subfigure}{\numberline{(b)}{\ignorespaces {Ant}}}{25}}
\@writefile{lof}{\contentsline {subfigure}{\numberline{(c)}{\ignorespaces {JEdit}}}{25}}
\@writefile{lof}{\contentsline {subfigure}{\numberline{(d)}{\ignorespaces {Maven}}}{25}}
\@writefile{lof}{\contentsline {figure}{\numberline {8}{\ignorespaces Estimated bug-proneness probability for various time intervals (in days) based on iClones' detection\relax }}{25}}
\newlabel{fig:trend_time_iclones}{{8}{25}}
\@writefile{lof}{\contentsline {subfigure}{\numberline{(a)}{\ignorespaces {ArgoUML}}}{25}}
\@writefile{lof}{\contentsline {subfigure}{\numberline{(b)}{\ignorespaces {Ant}}}{25}}
\@writefile{lof}{\contentsline {subfigure}{\numberline{(c)}{\ignorespaces {JEdit}}}{25}}
\@writefile{lof}{\contentsline {subfigure}{\numberline{(d)}{\ignorespaces {Maven}}}{25}}
\@writefile{lof}{\contentsline {figure}{\numberline {9}{\ignorespaces Estimated bug-proneness probability for various clone sizes based on NiCad's detection\relax }}{26}}
\newlabel{fig:trend_size_nicad}{{9}{26}}
\@writefile{lof}{\contentsline {subfigure}{\numberline{(a)}{\ignorespaces {ArgoUML}}}{26}}
\@writefile{lof}{\contentsline {subfigure}{\numberline{(b)}{\ignorespaces {Ant}}}{26}}
\@writefile{lof}{\contentsline {subfigure}{\numberline{(c)}{\ignorespaces {JEdit}}}{26}}
\@writefile{lof}{\contentsline {subfigure}{\numberline{(d)}{\ignorespaces {Maven}}}{26}}
\@writefile{lof}{\contentsline {figure}{\numberline {10}{\ignorespaces Estimated bug-proneness probability for various clone sizes based on iClones' detection\relax }}{26}}
\newlabel{fig:trend_size_iclones}{{10}{26}}
\@writefile{lof}{\contentsline {subfigure}{\numberline{(a)}{\ignorespaces {ArgoUML}}}{26}}
\@writefile{lof}{\contentsline {subfigure}{\numberline{(b)}{\ignorespaces {Ant}}}{26}}
\@writefile{lof}{\contentsline {subfigure}{\numberline{(c)}{\ignorespaces {JEdit}}}{26}}
\@writefile{lof}{\contentsline {subfigure}{\numberline{(d)}{\ignorespaces {Maven}}}{26}}
\citation{harrell2013regression}
\@writefile{toc}{\contentsline {subsection}{\numberline {5.3} RQ3: Can we predict faults in software clones using clone genealogy information?}{27}}
\@writefile{toc}{\contentsline {paragraph}{\textbf  {Motivation}}{27}}
\@writefile{lot}{\contentsline {table}{\numberline {13}{\ignorespaces Clone Pair Metrics\relax }}{28}}
\newlabel{tab:metrics}{{13}{28}}
\@writefile{toc}{\contentsline {paragraph}{\textbf  {Approach}}{28}}
\citation{Cataldo09-SoftwareDependencies}
\citation{Kutner04-ALRM}
\citation{rogerson2010statistical}
\citation{Cataldo09-SoftwareDependencies}
\@writefile{toc}{\contentsline {paragraph}{\textbf  {Results}}{29}}
\citation{promise2015}
\@writefile{lot}{\contentsline {table}{\numberline {14}{\ignorespaces Hierarchical Analysis of Linear Regression Models for NiCad\relax }}{30}}
\newlabel{model_nicad}{{14}{30}}
\@writefile{lot}{\contentsline {table}{\numberline {15}{\ignorespaces Hierarchical Analysis of Linear Regression Models for iClones\relax }}{30}}
\newlabel{model_iclones}{{15}{30}}
\@writefile{toc}{\contentsline {section}{\numberline {6}Discussion}{31}}
\newlabel{discuss}{{6}{31}}
\citation{svajlenko2014evaluating}
\@writefile{toc}{\contentsline {section}{\numberline {7}Threats to Validity}{32}}
\newlabel{threat}{{7}{32}}
\citation{Yin}
\citation{cfamily}
\@writefile{toc}{\contentsline {section}{\numberline {8}Conclusion}{33}}
\newlabel{conclusion}{{8}{33}}
\bibstyle{Springer-LNCS}
\bibdata{__reading,MyBib1,MyBib2,lilibib,foutsekh.read,foutsekh,anle}
\bibcite{Roy07asurvey}{1}
\bibcite{DiPentaJournal}{2}
\bibcite{Aversano}{3}
\bibcite{Barbour11-LP}{4}
\bibcite{BarbourKZ13}{5}
\bibcite{Kim}{6}
\bibcite{rahman2012clones}{7}
\bibcite{fowler2009refactoring}{8}
\bibcite{juergens2009code}{9}
\bibcite{KrinkeConsistentInconsistentChanges}{10}
\bibcite{NilsCloneStability}{11}
\bibcite{svajlenko2014evaluating}{12}
\bibcite{NilsFrequencyAndRisks}{13}
\bibcite{Goede:2011:ICSE}{14}
\bibcite{Goede:2011:IWSC}{15}
\bibcite{Mondal2016}{16}
\bibcite{Xie:2013:ESF}{17}
\bibcite{Xie:2014}{18}
\bibcite{Khoshgoftaar-96-DSM}{19}
\bibcite{Bernstein07-DefectPrediction}{20}
\bibcite{Graves00-FaultIncidence}{21}
\bibcite{Nagappan05-Codechurn}{22}
\bibcite{Hassan09-ComplexityofCodeChanges}{23}
\bibcite{Emam01-PFC}{24}
\bibcite{chi94}{25}
\bibcite{Briand99-UFC}{26}
\bibcite{Nagappan06-MMP}{27}
\bibcite{Zimmermann07-PredEclipse}{28}
\bibcite{Arisholm06-Faultprediction}{29}
\bibcite{Moser08-ChangevsStatic}{30}
\bibcite{kononenko2015investigating}{31}
\bibcite{mcintosh2015emse}{32}
\bibcite{CloningConsideredHarmful}{33}
\bibcite{sloccount}{34}
\bibcite{sliwerski2005changes}{35}
\bibcite{fischer2003populating}{36}
\bibcite{Roy08-NiCad}{37}
\bibcite{gode2009incremental}{38}
\bibcite{Lakhotia03}{39}
\bibcite{whachthepatch}{40}
\bibcite{CCFinder}{41}
\bibcite{sheskin}{42}
\bibcite{dmitrienko2005analysis}{43}
\bibcite{harrell2013regression}{44}
\bibcite{Cataldo09-SoftwareDependencies}{45}
\bibcite{Kutner04-ALRM}{46}
\bibcite{rogerson2010statistical}{47}
\bibcite{promise2015}{48}
\bibcite{Yin}{49}
\bibcite{cfamily}{50}
